/home/hyogi/workspace/HECIOS/src/physical/enhanced_host.ned
/home/hyogi/workspace/HECIOS/src/physical/enhanced_ethernet_interface2.ned
/home/hyogi/workspace/HECIOS/src/physical/enhanced_mac_relay_unit_pp.ned
/home/hyogi/workspace/HECIOS/src/physical/enhanced_ether_switch2.ned
/home/hyogi/workspace/HECIOS/src/physical/bmi_endpoint.ned
/home/hyogi/workspace/HECIOS/src/physical/enhanced_ether_encap.ned
/home/hyogi/workspace/HECIOS/src/physical/mpi_tcp_server.ned
/home/hyogi/workspace/HECIOS/src/physical/enhanced_ether_mac2.ned
/home/hyogi/workspace/HECIOS/src/physical/mpi_tcp_client.ned
/home/hyogi/workspace/HECIOS/src/physical/bmi_direct_endpoint.ned
/home/hyogi/workspace/HECIOS/src/physical/hard_disk.ned
/home/hyogi/workspace/HECIOS/src/physical/bmi_enhanced_host.ned
/home/hyogi/workspace/HECIOS/src/physical/bmi_tcp_client.ned
/home/hyogi/workspace/HECIOS/src/physical/bmi_tcp_endpoint.ned
/home/hyogi/workspace/HECIOS/src/physical/bmi_tcp_server.ned
/home/hyogi/workspace/HECIOS/src/server/request_scheduler.ned
/home/hyogi/workspace/HECIOS/src/server/fs_server.ned
/home/hyogi/workspace/HECIOS/src/client/mpi_process.ned
/home/hyogi/workspace/HECIOS/src/client/cache/middleware_cache.ned
/home/hyogi/workspace/HECIOS/src/client/mpi_middleware.ned
/home/hyogi/workspace/HECIOS/src/client/fs_client.ned
/home/hyogi/workspace/HECIOS/src/client/aggregator/middleware_aggregator.ned
/home/hyogi/workspace/HECIOS/src/client/io_application.ned
/home/hyogi/workspace/HECIOS/src/os/disk_scheduler.ned
/home/hyogi/workspace/HECIOS/src/os/file_system.ned
/home/hyogi/workspace/HECIOS/src/os/block_translator.ned
/home/hyogi/workspace/HECIOS/src/os/system_call_interface.ned
/home/hyogi/workspace/HECIOS/src/os/io_library.ned
/home/hyogi/workspace/HECIOS/src/os/access_manager.ned
/home/hyogi/workspace/HECIOS/src/os/buffer_cache.ned
/home/hyogi/workspace/HECIOS/src/io/job_manager.ned
/home/hyogi/workspace/HECIOS/src/config/compute_node.ned
/home/hyogi/workspace/HECIOS/src/config/job_process.ned
/home/hyogi/workspace/HECIOS/src/config/operating_system.ned
/home/hyogi/workspace/HECIOS/src/config/mpi_configurator.ned
/home/hyogi/workspace/HECIOS/src/config/beowulf_cluster.ned
/home/hyogi/workspace/HECIOS/src/config/fs_server_configurator.ned
/home/hyogi/workspace/HECIOS/src/config/io_node.ned
/home/hyogi/workspace/HECIOS/src/config/daemon_process.ned
/home/hyogi/workspace/HECIOS/src/config/storage_layer.ned
/home/hyogi/workspace/HECIOS/inet/tests/dlltest/SomeUDPApp.ned
/home/hyogi/workspace/HECIOS/inet/tests/dlltest/DLLTest.ned
/home/hyogi/workspace/HECIOS/inet/tests/newtcp/TcpTestClient.ned
/home/hyogi/workspace/HECIOS/inet/tests/newtcp/TCPTester.ned
/home/hyogi/workspace/HECIOS/inet/tests/newtcp/TcpTest.ned
/home/hyogi/workspace/HECIOS/inet/obsolete/tcpmodule/tcpmodule.ned
/home/hyogi/workspace/HECIOS/inet/obsolete/tcpmodule/TcpIpInterface.ned
/home/hyogi/workspace/HECIOS/inet/obsolete/apps/procserver.ned
/home/hyogi/workspace/HECIOS/inet/obsolete/apps/MyTCPApp.ned
/home/hyogi/workspace/HECIOS/inet/obsolete/apps/mytcpserverproc.ned
/home/hyogi/workspace/HECIOS/inet/obsolete/apps/tcpapp.ned
/home/hyogi/workspace/HECIOS/inet/obsolete/ldp/UDPInterface.ned
/home/hyogi/workspace/HECIOS/inet/obsolete/ldp/tcpclientproc.ned
/home/hyogi/workspace/HECIOS/inet/obsolete/ldp/LDPInterface.ned
/home/hyogi/workspace/HECIOS/inet/obsolete/ldp/LDPproc.ned
/home/hyogi/workspace/HECIOS/inet/obsolete/ldp/tcp2ldp.ned
/home/hyogi/workspace/HECIOS/inet/obsolete/ldp/tcpserverproc.ned
/home/hyogi/workspace/HECIOS/inet/obsolete/scenario/Scenario.ned
/home/hyogi/workspace/HECIOS/inet/obsolete/scenario/NewBWRequestTester.ned
/home/hyogi/workspace/HECIOS/inet/obsolete/scenario/NewRouteTester.ned
/home/hyogi/workspace/HECIOS/inet/obsolete/ipv4d/IPLocalDeliver.ned
/home/hyogi/workspace/HECIOS/inet/obsolete/ipv4d/IPRouting.ned
/home/hyogi/workspace/HECIOS/inet/obsolete/ipv4d/IPOutput.ned
/home/hyogi/workspace/HECIOS/inet/obsolete/ipv4d/IPMulticast.ned
/home/hyogi/workspace/HECIOS/inet/obsolete/ipv4d/IPProcessing.ned
/home/hyogi/workspace/HECIOS/inet/obsolete/ipv4d/IPTunneling.ned
/home/hyogi/workspace/HECIOS/inet/obsolete/ipv4d/IPInputQueue.ned
/home/hyogi/workspace/HECIOS/inet/obsolete/ipv4d/IPSend.ned
/home/hyogi/workspace/HECIOS/inet/obsolete/ipv4d/IPFragmentation.ned
/home/hyogi/workspace/HECIOS/inet/obsolete/ipv4d/IPPreRouting.ned
/home/hyogi/workspace/HECIOS/inet/obsolete/rsvp_te/RSVP.ned
/home/hyogi/workspace/HECIOS/inet/obsolete/rsvp_te/RSVPAppl.ned
/home/hyogi/workspace/HECIOS/inet/obsolete/rsvp_te/TED.ned
/home/hyogi/workspace/HECIOS/inet/obsolete/rsvp_te/OspfTe.ned
/home/hyogi/workspace/HECIOS/inet/obsolete/rsvp/RSVPInterface.ned
/home/hyogi/workspace/HECIOS/inet/obsolete/socket/socketlayer.ned
/home/hyogi/workspace/HECIOS/inet/obsolete/nodes/TCPServerTest.ned
/home/hyogi/workspace/HECIOS/inet/obsolete/nodes/TCPClientNode.ned
/home/hyogi/workspace/HECIOS/inet/obsolete/nodes/UDPUpperLayers.ned
/home/hyogi/workspace/HECIOS/inet/obsolete/nodes/StandardHost.ned
/home/hyogi/workspace/HECIOS/inet/obsolete/nodes/TCPUpperLayers.ned
/home/hyogi/workspace/HECIOS/inet/obsolete/nodes/TCPServerNode.ned
/home/hyogi/workspace/HECIOS/inet/obsolete/nodes/TCPClientTest.ned
/home/hyogi/workspace/HECIOS/inet/obsolete/nodes/mytcp4ip.ned
/home/hyogi/workspace/HECIOS/inet/obsolete/nodes/UDPHost.ned
/home/hyogi/workspace/HECIOS/inet/obsolete/examples/udpsockets/SocketApp.ned
/home/hyogi/workspace/HECIOS/inet/obsolete/examples/udpsockets/UDPSocketHost.ned
/home/hyogi/workspace/HECIOS/inet/obsolete/examples/udpsockets/UDPSockets.ned
/home/hyogi/workspace/HECIOS/inet/obsolete/examples/mpls/testte6/RSVPTE4.ned
/home/hyogi/workspace/HECIOS/inet/obsolete/examples/mpls/test/MPLSNet.ned
/home/hyogi/workspace/HECIOS/inet/obsolete/examples/mpls/test/MPLSOnly.ned
/home/hyogi/workspace/HECIOS/inet/obsolete/examples/mpls/testte3/RSVPNet.ned
/home/hyogi/workspace/HECIOS/inet/obsolete/examples/mpls/testte5/RSVPTE4.ned
/home/hyogi/workspace/HECIOS/inet/obsolete/examples/mpls/testte4/RSVPTE4.ned
/home/hyogi/workspace/HECIOS/inet/obsolete/examples/mpls/testte1/RSVPTE4.ned
/home/hyogi/workspace/HECIOS/inet/obsolete/examples/mpls/ldp-mpls1/MPLSNet.ned
/home/hyogi/workspace/HECIOS/inet/obsolete/examples/mpls/ldp-mpls1/MPLSOnly.ned
/home/hyogi/workspace/HECIOS/inet/obsolete/examples/mpls/testte2/RSVPNet.ned
/home/hyogi/workspace/HECIOS/inet/obsolete/examples/tcptester/switch.ned
/home/hyogi/workspace/HECIOS/inet/obsolete/examples/tcptester/ppp.ned
/home/hyogi/workspace/HECIOS/inet/obsolete/examples/tcptester/TCPTester.ned
/home/hyogi/workspace/HECIOS/inet/obsolete/examples/tcptester/ipmodule.ned
/home/hyogi/workspace/HECIOS/inet/obsolete/examples/tcptester/dropswitch.ned
/home/hyogi/workspace/HECIOS/inet/obsolete/ospftest/OSPFBackboneTest.ned
/home/hyogi/workspace/HECIOS/inet/obsolete/ospftest/OSPFAreaTest_Area1.ned
/home/hyogi/workspace/HECIOS/inet/obsolete/ospftest/OSPFTestNetworkArea1.ned
/home/hyogi/workspace/HECIOS/inet/obsolete/ospftest/OSPFTestNetwork.ned
/home/hyogi/workspace/HECIOS/inet/obsolete/ospftest/OSPFTestNetworkArea3.ned
/home/hyogi/workspace/HECIOS/inet/obsolete/ospftest/OSPFTestNetworkArea2.ned
/home/hyogi/workspace/HECIOS/inet/obsolete/ospftest/OSPFSimpleTest.ned
/home/hyogi/workspace/HECIOS/inet/obsolete/ospftest/OSPFAreaTest.ned
/home/hyogi/workspace/HECIOS/inet/obsolete/ospftest/OSPFAreaTest_Area2.ned
/home/hyogi/workspace/HECIOS/inet/src/mobility/ANSimMobility.ned
/home/hyogi/workspace/HECIOS/inet/src/mobility/TurtleMobility.ned
/home/hyogi/workspace/HECIOS/inet/src/mobility/RectangleMobility.ned
/home/hyogi/workspace/HECIOS/inet/src/mobility/NullMobility.ned
/home/hyogi/workspace/HECIOS/inet/src/mobility/ConstSpeedMobility.ned
/home/hyogi/workspace/HECIOS/inet/src/mobility/RandomWPMobility.ned
/home/hyogi/workspace/HECIOS/inet/src/mobility/BonnMotionMobility.ned
/home/hyogi/workspace/HECIOS/inet/src/mobility/BasicMobility.ned
/home/hyogi/workspace/HECIOS/inet/src/mobility/LinearMobility.ned
/home/hyogi/workspace/HECIOS/inet/src/mobility/CircleMobility.ned
/home/hyogi/workspace/HECIOS/inet/src/mobility/MassMobility.ned
/home/hyogi/workspace/HECIOS/inet/src/applications/generic/IPTrafGen.ned
/home/hyogi/workspace/HECIOS/inet/src/applications/generic/IPTrafficGenerator.ned
/home/hyogi/workspace/HECIOS/inet/src/applications/ethernet/EtherAppSrv.ned
/home/hyogi/workspace/HECIOS/inet/src/applications/ethernet/EtherAppCli.ned
/home/hyogi/workspace/HECIOS/inet/src/applications/sctpapp/SCTPServer.ned
/home/hyogi/workspace/HECIOS/inet/src/applications/sctpapp/SCTPClient.ned
/home/hyogi/workspace/HECIOS/inet/src/applications/sctpapp/SCTPPeer.ned
/home/hyogi/workspace/HECIOS/inet/src/applications/sctpapp/SCTPApp.ned
/home/hyogi/workspace/HECIOS/inet/src/applications/udpapp/UDPBasicApp.ned
/home/hyogi/workspace/HECIOS/inet/src/applications/udpapp/UDPVideoStreamSvr.ned
/home/hyogi/workspace/HECIOS/inet/src/applications/udpapp/UDPEchoApp.ned
/home/hyogi/workspace/HECIOS/inet/src/applications/udpapp/UDPSink.ned
/home/hyogi/workspace/HECIOS/inet/src/applications/udpapp/UDPVideoStreamCli.ned
/home/hyogi/workspace/HECIOS/inet/src/applications/udpapp/UDPApp.ned
/home/hyogi/workspace/HECIOS/inet/src/applications/tcpapp/TCPGenericSrvApp.ned
/home/hyogi/workspace/HECIOS/inet/src/applications/tcpapp/TCPEchoApp.ned
/home/hyogi/workspace/HECIOS/inet/src/applications/tcpapp/TelnetApp.ned
/home/hyogi/workspace/HECIOS/inet/src/applications/tcpapp/TCPSinkApp.ned
/home/hyogi/workspace/HECIOS/inet/src/applications/tcpapp/TCPBasicClientApp.ned
/home/hyogi/workspace/HECIOS/inet/src/applications/tcpapp/TCPApp.ned
/home/hyogi/workspace/HECIOS/inet/src/applications/tcpapp/TCPSpoof.ned
/home/hyogi/workspace/HECIOS/inet/src/applications/tcpapp/TCPSrvHostApp.ned
/home/hyogi/workspace/HECIOS/inet/src/applications/tcpapp/TCPSessionApp.ned
/home/hyogi/workspace/HECIOS/inet/src/applications/rtpapp/RTPApplication.ned
/home/hyogi/workspace/HECIOS/inet/src/applications/pingapp/PingApp.ned
/home/hyogi/workspace/HECIOS/inet/src/world/NAMTrace.ned
/home/hyogi/workspace/HECIOS/inet/src/world/ScenarioManager.ned
/home/hyogi/workspace/HECIOS/inet/src/world/ChannelInstaller.ned
/home/hyogi/workspace/HECIOS/inet/src/world/ChannelControl.ned
/home/hyogi/workspace/HECIOS/inet/src/package.ned
/home/hyogi/workspace/HECIOS/inet/src/util/NetAnimTrace.ned
/home/hyogi/workspace/HECIOS/inet/src/util/NAMTraceWriter.ned
/home/hyogi/workspace/HECIOS/inet/src/util/TCPDump.ned
/home/hyogi/workspace/HECIOS/inet/src/inet-index.ned
/home/hyogi/workspace/HECIOS/inet/src/networklayer/queue/OutputQueue.ned
/home/hyogi/workspace/HECIOS/inet/src/networklayer/queue/REDQueue.ned
/home/hyogi/workspace/HECIOS/inet/src/networklayer/queue/DropTailQueue.ned
/home/hyogi/workspace/HECIOS/inet/src/networklayer/queue/DropTailQoSQueue.ned
/home/hyogi/workspace/HECIOS/inet/src/networklayer/ldp/LDP.ned
/home/hyogi/workspace/HECIOS/inet/src/networklayer/ted/TED.ned
/home/hyogi/workspace/HECIOS/inet/src/networklayer/ted/LinkStateRouting.ned
/home/hyogi/workspace/HECIOS/inet/src/networklayer/extras/NetworkInfo.ned
/home/hyogi/workspace/HECIOS/inet/src/networklayer/extras/Dummy.ned
/home/hyogi/workspace/HECIOS/inet/src/networklayer/extras/FailureManager.ned
/home/hyogi/workspace/HECIOS/inet/src/networklayer/ipv4/RoutingTable.ned
/home/hyogi/workspace/HECIOS/inet/src/networklayer/ipv4/IP.ned
/home/hyogi/workspace/HECIOS/inet/src/networklayer/ipv4/IGMP.ned
/home/hyogi/workspace/HECIOS/inet/src/networklayer/ipv4/ICMP.ned
/home/hyogi/workspace/HECIOS/inet/src/networklayer/ipv4/ErrorHandling.ned
/home/hyogi/workspace/HECIOS/inet/src/networklayer/rsvp_te/RSVP.ned
/home/hyogi/workspace/HECIOS/inet/src/networklayer/rsvp_te/SimpleClassifier.ned
/home/hyogi/workspace/HECIOS/inet/src/networklayer/mpls/LIBTable.ned
/home/hyogi/workspace/HECIOS/inet/src/networklayer/mpls/MPLS.ned
/home/hyogi/workspace/HECIOS/inet/src/networklayer/autorouting/FlatNetworkConfigurator.ned
/home/hyogi/workspace/HECIOS/inet/src/networklayer/autorouting/FlatNetworkConfigurator6.ned
/home/hyogi/workspace/HECIOS/inet/src/networklayer/autorouting/NetworkConfigurator.ned
/home/hyogi/workspace/HECIOS/inet/src/networklayer/ospfv2/OSPFRouting.ned
/home/hyogi/workspace/HECIOS/inet/src/networklayer/arp/ARP.ned
/home/hyogi/workspace/HECIOS/inet/src/networklayer/ipv6/IPv6ErrorHandling.ned
/home/hyogi/workspace/HECIOS/inet/src/networklayer/ipv6/IPv6.ned
/home/hyogi/workspace/HECIOS/inet/src/networklayer/ipv6/RoutingTable6.ned
/home/hyogi/workspace/HECIOS/inet/src/networklayer/icmpv6/IPv6NeighbourDiscovery.ned
/home/hyogi/workspace/HECIOS/inet/src/networklayer/icmpv6/ICMPv6.ned
/home/hyogi/workspace/HECIOS/inet/src/networklayer/common/InterfaceTable.ned
/home/hyogi/workspace/HECIOS/inet/src/inet-doc.ned
/home/hyogi/workspace/HECIOS/inet/src/transport/tcp_old/TCP_old.ned
/home/hyogi/workspace/HECIOS/inet/src/transport/sctp/SCTP.ned
/home/hyogi/workspace/HECIOS/inet/src/transport/tcp/TCP.ned
/home/hyogi/workspace/HECIOS/inet/src/transport/tcp/ITCP.ned
/home/hyogi/workspace/HECIOS/inet/src/transport/udp/UDP.ned
/home/hyogi/workspace/HECIOS/inet/src/transport/rtp/RTPProfile.ned
/home/hyogi/workspace/HECIOS/inet/src/transport/rtp/RTPPayloadSender.ned
/home/hyogi/workspace/HECIOS/inet/src/transport/rtp/RTCP.ned
/home/hyogi/workspace/HECIOS/inet/src/transport/rtp/RTPPayloadReceiver.ned
/home/hyogi/workspace/HECIOS/inet/src/transport/rtp/RTP.ned
/home/hyogi/workspace/HECIOS/inet/src/transport/rtp/RTPLayer.ned
/home/hyogi/workspace/HECIOS/inet/src/transport/rtp/RTPHost.ned
/home/hyogi/workspace/HECIOS/inet/src/transport/tcp_nsc/TCP_NSC.ned
/home/hyogi/workspace/HECIOS/inet/src/linklayer/ppp/PPPInterfaceWithDLThruputMeter.ned
/home/hyogi/workspace/HECIOS/inet/src/linklayer/ppp/DuplicatesGenerator.ned
/home/hyogi/workspace/HECIOS/inet/src/linklayer/ppp/PPPInterfaceWithULThruputMeter.ned
/home/hyogi/workspace/HECIOS/inet/src/linklayer/ppp/PPPInterfaceNoQueue.ned
/home/hyogi/workspace/HECIOS/inet/src/linklayer/ppp/PPPInterface.ned
/home/hyogi/workspace/HECIOS/inet/src/linklayer/ppp/ThruputMeter.ned
/home/hyogi/workspace/HECIOS/inet/src/linklayer/ppp/DropsGenerator.ned
/home/hyogi/workspace/HECIOS/inet/src/linklayer/ppp/PPPInterfaceWithULDropsGenerator.ned
/home/hyogi/workspace/HECIOS/inet/src/linklayer/ppp/PPPInterfaceWithDLDuplicatesGenerator.ned
/home/hyogi/workspace/HECIOS/inet/src/linklayer/ppp/PPP.ned
/home/hyogi/workspace/HECIOS/inet/src/linklayer/mf80211/macLayer/Mac80211.ned
/home/hyogi/workspace/HECIOS/inet/src/linklayer/mf80211/macLayer/CSMAMacLayer.ned
/home/hyogi/workspace/HECIOS/inet/src/linklayer/mf80211/SnrNic.ned
/home/hyogi/workspace/HECIOS/inet/src/linklayer/mf80211/NicCsma.ned
/home/hyogi/workspace/HECIOS/inet/src/linklayer/mf80211/phyLayer/decider/ErrAndCollDecider.ned
/home/hyogi/workspace/HECIOS/inet/src/linklayer/mf80211/phyLayer/decider/Decider80211.ned
/home/hyogi/workspace/HECIOS/inet/src/linklayer/mf80211/phyLayer/decider/SnrDecider.ned
/home/hyogi/workspace/HECIOS/inet/src/linklayer/mf80211/phyLayer/snrEval/SnrEval80211.ned
/home/hyogi/workspace/HECIOS/inet/src/linklayer/mf80211/phyLayer/snrEval/SnrEval.ned
/home/hyogi/workspace/HECIOS/inet/src/linklayer/mf80211/phyLayer/snrEval/GilbertElliotSnr.ned
/home/hyogi/workspace/HECIOS/inet/src/linklayer/mf80211/Nic80211.ned
/home/hyogi/workspace/HECIOS/inet/src/linklayer/ethernet/EtherBus.ned
/home/hyogi/workspace/HECIOS/inet/src/linklayer/ethernet/EtherMAC.ned
/home/hyogi/workspace/HECIOS/inet/src/linklayer/ethernet/EtherMAC2.ned
/home/hyogi/workspace/HECIOS/inet/src/linklayer/ethernet/EthernetInterface2.ned
/home/hyogi/workspace/HECIOS/inet/src/linklayer/ethernet/EtherLLC.ned
/home/hyogi/workspace/HECIOS/inet/src/linklayer/ethernet/eth-index.ned
/home/hyogi/workspace/HECIOS/inet/src/linklayer/ethernet/EtherEncap.ned
/home/hyogi/workspace/HECIOS/inet/src/linklayer/ethernet/EthernetInterfaceNoQueue.ned
/home/hyogi/workspace/HECIOS/inet/src/linklayer/ethernet/EtherHub.ned
/home/hyogi/workspace/HECIOS/inet/src/linklayer/ethernet/EthernetInterface.ned
/home/hyogi/workspace/HECIOS/inet/src/linklayer/etherswitch/MACRelayUnit.ned
/home/hyogi/workspace/HECIOS/inet/src/linklayer/etherswitch/MACRelayUnitPP.ned
/home/hyogi/workspace/HECIOS/inet/src/linklayer/etherswitch/MACRelayUnitNP.ned
/home/hyogi/workspace/HECIOS/inet/src/linklayer/mfcore/BasicSnrEval.ned
/home/hyogi/workspace/HECIOS/inet/src/linklayer/mfcore/BasicDecider.ned
/home/hyogi/workspace/HECIOS/inet/src/linklayer/mfcore/WirelessMac.ned
/home/hyogi/workspace/HECIOS/inet/src/linklayer/ieee80211/Ieee80211Nic.ned
/home/hyogi/workspace/HECIOS/inet/src/linklayer/ieee80211/Ieee80211NicSTA.ned
/home/hyogi/workspace/HECIOS/inet/src/linklayer/ieee80211/Ieee80211NicAPSimplified.ned
/home/hyogi/workspace/HECIOS/inet/src/linklayer/ieee80211/mgmt/Ieee80211MgmtSTA.ned
/home/hyogi/workspace/HECIOS/inet/src/linklayer/ieee80211/mgmt/Ieee80211MgmtSTASimplified.ned
/home/hyogi/workspace/HECIOS/inet/src/linklayer/ieee80211/mgmt/Ieee80211AgentSTA.ned
/home/hyogi/workspace/HECIOS/inet/src/linklayer/ieee80211/mgmt/Ieee80211MgmtAP.ned
/home/hyogi/workspace/HECIOS/inet/src/linklayer/ieee80211/mgmt/Ieee80211MgmtAdhoc.ned
/home/hyogi/workspace/HECIOS/inet/src/linklayer/ieee80211/mgmt/Ieee80211Mgmt.ned
/home/hyogi/workspace/HECIOS/inet/src/linklayer/ieee80211/mgmt/Ieee80211MgmtAPSimplified.ned
/home/hyogi/workspace/HECIOS/inet/src/linklayer/ieee80211/Ieee80211NicSTASimplified.ned
/home/hyogi/workspace/HECIOS/inet/src/linklayer/ieee80211/Ieee80211NicAdhoc.ned
/home/hyogi/workspace/HECIOS/inet/src/linklayer/ieee80211/Ieee80211Doc.ned
/home/hyogi/workspace/HECIOS/inet/src/linklayer/ieee80211/Ieee80211NicAP.ned
/home/hyogi/workspace/HECIOS/inet/src/linklayer/ieee80211/mac/Ieee80211Mac.ned
/home/hyogi/workspace/HECIOS/inet/src/linklayer/ext/ExtInterface.ned
/home/hyogi/workspace/HECIOS/inet/src/linklayer/NetworkInterface.ned
/home/hyogi/workspace/HECIOS/inet/src/linklayer/radio/Radio.ned
/home/hyogi/workspace/HECIOS/inet/src/linklayer/radio/GenericRadio.ned
/home/hyogi/workspace/HECIOS/inet/src/linklayer/radio/Ieee80211Radio.ned
/home/hyogi/workspace/HECIOS/inet/src/nodes/wireless/WirelessAPWithEthSimplified.ned
/home/hyogi/workspace/HECIOS/inet/src/nodes/wireless/WirelessAPSimplified.ned
/home/hyogi/workspace/HECIOS/inet/src/nodes/wireless/WirelessHostSimplified.ned
/home/hyogi/workspace/HECIOS/inet/src/nodes/wireless/WirelessHost.ned
/home/hyogi/workspace/HECIOS/inet/src/nodes/wireless/WirelessAP.ned
/home/hyogi/workspace/HECIOS/inet/src/nodes/wireless/WirelessAPWithEth.ned
/home/hyogi/workspace/HECIOS/inet/src/nodes/ethernet/EtherSwitch2.ned
/home/hyogi/workspace/HECIOS/inet/src/nodes/ethernet/EtherSwitch.ned
/home/hyogi/workspace/HECIOS/inet/src/nodes/ethernet/EtherHost.ned
/home/hyogi/workspace/HECIOS/inet/src/nodes/ethernet/EtherHost2.ned
/home/hyogi/workspace/HECIOS/inet/src/nodes/inet/BurstHost.ned
/home/hyogi/workspace/HECIOS/inet/src/nodes/inet/StandardHostWithDLThruputMeter.ned
/home/hyogi/workspace/HECIOS/inet/src/nodes/inet/NetworkLayer.ned
/home/hyogi/workspace/HECIOS/inet/src/nodes/inet/StandardHost.ned
/home/hyogi/workspace/HECIOS/inet/src/nodes/inet/StandardHostWithULThruputMeter.ned
/home/hyogi/workspace/HECIOS/inet/src/nodes/inet/TCPSpoofingHost.ned
/home/hyogi/workspace/HECIOS/inet/src/nodes/inet/Router.ned
/home/hyogi/workspace/HECIOS/inet/src/nodes/inet/ExtRouter.ned
/home/hyogi/workspace/HECIOS/inet/src/nodes/inet/StandardHostWithULDropsGenerator.ned
/home/hyogi/workspace/HECIOS/inet/src/nodes/inet/StandardHostWithDLDuplicatesGenerator.ned
/home/hyogi/workspace/HECIOS/inet/src/nodes/inet/FailedRouter.ned
/home/hyogi/workspace/HECIOS/inet/src/nodes/inet/OSPFRouter.ned
/home/hyogi/workspace/HECIOS/inet/src/nodes/mpls/LDP_FAILED.ned
/home/hyogi/workspace/HECIOS/inet/src/nodes/mpls/RSVP_LSR.ned
/home/hyogi/workspace/HECIOS/inet/src/nodes/mpls/LDP_LSR.ned
/home/hyogi/workspace/HECIOS/inet/src/nodes/mpls/RSVP_FAILED.ned
/home/hyogi/workspace/HECIOS/inet/src/nodes/adhoc/MFMobileHost.ned
/home/hyogi/workspace/HECIOS/inet/src/nodes/adhoc/MobileHost.ned
/home/hyogi/workspace/HECIOS/inet/src/nodes/ipv6/StandardHost6.ned
/home/hyogi/workspace/HECIOS/inet/src/nodes/ipv6/NetworkLayer6.ned
/home/hyogi/workspace/HECIOS/inet/src/nodes/ipv6/Router6.ned
/home/hyogi/workspace/HECIOS/inet/src/base/Join.ned
/home/hyogi/workspace/HECIOS/inet/src/base/Nop.ned
/home/hyogi/workspace/HECIOS/inet/src/base/Blackboard.ned
/home/hyogi/workspace/HECIOS/inet/src/base/Sink.ned
/home/hyogi/workspace/HECIOS/inet/src/base/NotificationBoard.ned
/home/hyogi/workspace/HECIOS/inet/src/mpls-doc.ned
/home/hyogi/workspace/HECIOS/inet/examples/wireless/lan80211/Lan80211.ned
/home/hyogi/workspace/HECIOS/inet/examples/wireless/throughput/Throughput.ned
/home/hyogi/workspace/HECIOS/inet/examples/wireless/throughput/WirelessAPWithSink.ned
/home/hyogi/workspace/HECIOS/inet/examples/wireless/hosttohost/Throughput.ned
/home/hyogi/workspace/HECIOS/inet/examples/wireless/handover/HandoverNetwork.ned
/home/hyogi/workspace/HECIOS/inet/examples/emulation/extserver/extServer.ned
/home/hyogi/workspace/HECIOS/inet/examples/emulation/traceroute/Traceroute.ned
/home/hyogi/workspace/HECIOS/inet/examples/emulation/extclient/ExtClient.ned
/home/hyogi/workspace/HECIOS/inet/examples/ethernet/arptest/ARPTest.ned
/home/hyogi/workspace/HECIOS/inet/examples/ethernet/arptest2/ARPTest.ned
/home/hyogi/workspace/HECIOS/inet/examples/ethernet/lans/Networks.ned
/home/hyogi/workspace/HECIOS/inet/examples/ethernet/lans/LargeNet.ned
/home/hyogi/workspace/HECIOS/inet/examples/package.ned
/home/hyogi/workspace/HECIOS/inet/examples/sctp/nclients/NClients.ned
/home/hyogi/workspace/HECIOS/inet/examples/sctp/multihomed/multi.ned
/home/hyogi/workspace/HECIOS/inet/examples/inet/ber/ber.ned
/home/hyogi/workspace/HECIOS/inet/examples/inet/tcptimestamps/tcptimestamps.ned
/home/hyogi/workspace/HECIOS/inet/examples/inet/tcpwindowscale/tcpwindowscale.ned
/home/hyogi/workspace/HECIOS/inet/examples/inet/routerperf/RouterPerf.ned
/home/hyogi/workspace/HECIOS/inet/examples/inet/tcpsack/tcpSack.ned
/home/hyogi/workspace/HECIOS/inet/examples/inet/tcpclientserver/ClientServer.ned
/home/hyogi/workspace/HECIOS/inet/examples/inet/nclients/NClients2.ned
/home/hyogi/workspace/HECIOS/inet/examples/inet/nclients/NClients.ned
/home/hyogi/workspace/HECIOS/inet/examples/inet/multicast/MulticastNetwork.ned
/home/hyogi/workspace/HECIOS/inet/examples/inet/kidsnw1/KIDSNw1.ned
/home/hyogi/workspace/HECIOS/inet/examples/inet/bulktransfer/BulkTransfer.ned
/home/hyogi/workspace/HECIOS/inet/examples/inet/flatnet/FlatNet.ned
/home/hyogi/workspace/HECIOS/inet/examples/inet/redtest/REDTestDebug.ned
/home/hyogi/workspace/HECIOS/inet/examples/inet/redtest/REDTest.ned
/home/hyogi/workspace/HECIOS/inet/examples/inet/redtest/REDTestTh.ned
/home/hyogi/workspace/HECIOS/inet/examples/mpls/ldp/LDPTEST.ned
/home/hyogi/workspace/HECIOS/inet/examples/mpls/testte_tunnel/RSVPTE4.ned
/home/hyogi/workspace/HECIOS/inet/examples/mpls/testte_reroute/RSVPTE4.ned
/home/hyogi/workspace/HECIOS/inet/examples/mpls/net37/r37-orig.ned
/home/hyogi/workspace/HECIOS/inet/examples/mpls/net37/r37.ned
/home/hyogi/workspace/HECIOS/inet/examples/mpls/testte_routing/RSVPTE4.ned
/home/hyogi/workspace/HECIOS/inet/examples/mpls/testte_failure2/RSVPTE4.ned
/home/hyogi/workspace/HECIOS/inet/examples/mpls/testte_failure/RSVPTE4.ned
/home/hyogi/workspace/HECIOS/inet/examples/adhoc/mobility/PlainMobilityHost.ned
/home/hyogi/workspace/HECIOS/inet/examples/adhoc/mobility/MobileNet.ned
/home/hyogi/workspace/HECIOS/inet/examples/adhoc/mf80211/Net80211.ned
/home/hyogi/workspace/HECIOS/inet/examples/adhoc/ieee80211/Net80211.ned
/home/hyogi/workspace/HECIOS/inet/examples/ospfv2/fulltest/Area1.ned
/home/hyogi/workspace/HECIOS/inet/examples/ospfv2/fulltest/Area2.ned
/home/hyogi/workspace/HECIOS/inet/examples/ospfv2/fulltest/Area3.ned
/home/hyogi/workspace/HECIOS/inet/examples/ospfv2/fulltest/FullTest.ned
/home/hyogi/workspace/HECIOS/inet/examples/ospfv2/areas/Area1.ned
/home/hyogi/workspace/HECIOS/inet/examples/ospfv2/areas/Area2.ned
/home/hyogi/workspace/HECIOS/inet/examples/ospfv2/areas/Areas.ned
/home/hyogi/workspace/HECIOS/inet/examples/ospfv2/backbone/Backbone.ned
/home/hyogi/workspace/HECIOS/inet/examples/ospfv2/simpletest/SimpleTest.ned
/home/hyogi/workspace/HECIOS/inet/examples/ipv6/ipv6nclients/NClientsEth.ned
/home/hyogi/workspace/HECIOS/inet/examples/ipv6/ipv6nclients/NClientsPPP.ned
/home/hyogi/workspace/HECIOS/inet/examples/ipv6/nclients/NClientsEth.ned
/home/hyogi/workspace/HECIOS/inet/examples/ipv6/nclients/NClientsPPP.ned
/home/hyogi/workspace/HECIOS/inet/examples/ipv6/ipv6bulk/BulkTransfer6.ned
/home/hyogi/workspace/HECIOS/inet/examples/ipv6/demonetworketh/DemoNetworkEth.ned
/home/hyogi/workspace/HECIOS/inet/examples/rtp/unicast/unicast.ned
/home/hyogi/workspace/HECIOS/inet/examples/rtp/multicast1/multicast1.ned
